%YAML 1.1
%TAG !u! tag:unity3d.com,2011:
--- !u!1045 &1
EditorBuildSettings:
  m_ObjectHideFlags: 0
  serializedVersion: 2
  m_Scenes:
  - enabled: 1
    path: Assets/Scenes/Menu.unity
    guid: eec5eb3c5315498418b4726f28bf639f
  - enabled: 1
    path: Assets/Scenes/Jogo.unity
    guid: cfca03c362f1e654eb57f4f7163d45bd
  m_configObjects: {}
